%YAML 1.1
%TAG !u! tag:unity3d.com,2011:
--- !u!1001 &8295263067849288436
PrefabInstance:
  m_ObjectHideFlags: 0
  serializedVersion: 2
  m_Modification:
    m_TransformParent: {fileID: 0}
    m_Modifications:
    - target: {fileID: 8451946206702594428, guid: 4af056a83b999b04095d091e0f808142,
        type: 3}
      propertyPath: m_Name
      value: floor_1_
      objectReference: {fileID: 0}
    - target: {fileID: 3777894241862113311, guid: 4af056a83b999b04095d091e0f808142,
        type: 3}
      propertyPath: m_LocalPosition.x
      value: 3.98
      objectReference: {fileID: 0}
    - target: {fileID: 3777894241862113311, guid: 4af056a83b999b04095d091e0f808142,
        type: 3}
      propertyPath: m_LocalPosition.y
      value: 0
      objectReference: {fileID: 0}
    - target: {fileID: 3777894241862113311, guid: 4af056a83b999b04095d091e0f808142,
        type: 3}
      propertyPath: m_LocalPosition.z
      value: 0
      objectReference: {fileID: 0}
    - target: {fileID: 3777894241862113311, guid: 4af056a83b999b04095d091e0f808142,
        type: 3}
      propertyPath: m_LocalRotation.x
      value: 0
      objectReference: {fileID: 0}
    - target: {fileID: 3777894241862113311, guid: 4af056a83b999b04095d091e0f808142,
        type: 3}
      propertyPath: m_LocalRotation.y
      value: -0
      objectReference: {fileID: 0}
    - target: {fileID: 3777894241862113311, guid: 4af056a83b999b04095d091e0f808142,
        type: 3}
      propertyPath: m_LocalRotation.z
      value: -0
      objectReference: {fileID: 0}
    - target: {fileID: 3777894241862113311, guid: 4af056a83b999b04095d091e0f808142,
        type: 3}
      propertyPath: m_LocalRotation.w
      value: 1
      objectReference: {fileID: 0}
    - target: {fileID: 3777894241862113311, guid: 4af056a83b999b04095d091e0f808142,
        type: 3}
      propertyPath: m_RootOrder
      value: 0
      objectReference: {fileID: 0}
    - target: {fileID: 3777894241862113311, guid: 4af056a83b999b04095d091e0f808142,
        type: 3}
      propertyPath: m_LocalEulerAnglesHint.x
      value: 0
      objectReference: {fileID: 0}
    - target: {fileID: 3777894241862113311, guid: 4af056a83b999b04095d091e0f808142,
        type: 3}
      propertyPath: m_LocalEulerAnglesHint.y
      value: 0
      objectReference: {fileID: 0}
    - target: {fileID: 3777894241862113311, guid: 4af056a83b999b04095d091e0f808142,
        type: 3}
      propertyPath: m_LocalEulerAnglesHint.z
      value: 0
      objectReference: {fileID: 0}
    - target: {fileID: 3899308754397047740, guid: 4af056a83b999b04095d091e0f808142,
        type: 3}
      propertyPath: m_LocalPosition.x
      value: 0.01
      objectReference: {fileID: 0}
    - target: {fileID: 3899308754397047740, guid: 4af056a83b999b04095d091e0f808142,
        type: 3}
      propertyPath: m_LocalPosition.z
      value: 4
      objectReference: {fileID: 0}
    m_RemovedComponents: []
  m_SourcePrefab: {fileID: 100100000, guid: 4af056a83b999b04095d091e0f808142, type: 3}
